{
  "C7010": {
    "EXT": {
      "novirtual": "Template SNMPv3noPriv Nexus 7000 Base",
      "virtual": "Template SNMPv3noPriv Nexus 7000 VDC Only"},
    "INT": {
      "novirtual": "Template SNMPv3noPriv Nexus 7000 Base",
      "virtual": "Template SNMPv3noPriv Nexus 7000 VDC Only"}
    },
  "DCS-7280CR2K-60-F": {
    "EXT": {
      "novirtual": "Template SNMPv3noPriv Arista",
      "virtual": ""},
    "INT": {
      "novirtual": "Template SNMPv3noPriv Arista",
      "virtual": ""}
    },
  "DCS-7280CR2K-30-F": {
    "EXT": {
      "novirtual": "",
      "virtual": ""},
    "INT": {
      "novirtual": "Template SNMPv3noPriv Arista",
      "virtual": ""}
    },
  "DCS-7508N": {
    "EXT": {
      "novirtual": "Template SNMPv3noPriv Arista",
      "virtual": ""},
    "INT": {
      "novirtual": "",
      "virtual": ""}
    },
  "Nexus 3064": {
    "EXT": {
      "novirtual": "Template SNMPv3noPriv Nexus 3000",
      "virtual": ""},
    "INT": {
      "novirtual": "Template SNMPv3noPriv Nexus 3000",
      "virtual": ""}
    },
  "Nexus 3048": {
    "EXT": {
      "novirtual": "Template SNMPv3noPriv Nexus 3000",
      "virtual": ""},
    "INT": {
      "novirtual": "Template SNMPv3noPriv Nexus 3000",
      "virtual": ""}
    },
  "Nexus 31108PCV": {
    "EXT": {
      "novirtual": "Template SNMPv3noPriv Nexus 3000",
      "virtual": ""},
    "INT": {
      "novirtual": "Template SNMPv3noPriv Nexus 3000",
      "virtual": ""}
    },
  "C3064PQ": {
    "EXT": {
      "novirtual": "Template SNMPv3noPriv Nexus 3000",
      "virtual": ""},
    "INT": {
      "novirtual": "Template SNMPv3noPriv Nexus 3000",
      "virtual": ""}
    },
  "Nexus 4000": {
    "EXT": {
      "novirtual": "Template SNMPv3noPriv Nexus 4000",
      "virtual": ""},
    "INT": {
      "novirtual": "Template SNMPv3noPriv Nexus 4000",
      "virtual": ""}
    },
  "CE5810-48T4S-EI": {
    "EXT": {
      "novirtual": "Template SNMPv2 Huawei CE7850-CE6850",
      "virtual": ""},
    "INT": {
      "novirtual": "Template SNMPv2 Huawei CE7850-CE6850",
      "virtual": ""}
    },
  "CE6820-48S6CQ": {
    "EXT": {
      "novirtual": "Template SNMPv2 Huawei CE7850-CE6850",
      "virtual": ""},
    "INT": {
      "novirtual": "Template SNMPv2 Huawei CE7850-CE6850",
      "virtual": ""}
    },
  "HuaweiRT": {
    "EXT": {
      "novirtual": "",
      "virtual": ""},
    "INT": {
      "novirtual": "Template SNMPv2 Huawei CE7850-CE6850",
      "virtual": ""}
    },
  "CE8850-64CQ-EI": {
    "EXT": {
      "novirtual": "Template SNMPv2 Huawei CE7850-CE6850",
      "virtual": ""},
    "INT": {
      "novirtual": "Template SNMPv2 Huawei CE7850-CE6850",
      "virtual": ""}
    },
  "CE7855-32Q-EI": {
    "EXT": {
      "novirtual": "",
      "virtual": ""},
    "INT": {
      "novirtual": "Template SNMPv2 Huawei CE7850-CE6850",
      "virtual": ""}
    },
  "CE5855-48T4S2Q-EI": {
    "EXT": {
      "novirtual": "Template SNMPv2 Huawei CE7850-CE6850",
      "virtual": ""},
    "INT": {
      "novirtual": "Template SNMPv2 Huawei CE7850-CE6850",
      "virtual": ""}
    },
  "CE6850-48S6Q-HI": {
    "EXT": {
      "novirtual": "Template SNMPv2 Huawei CE7850-CE6850",
      "virtual": ""},
    "INT": {
      "novirtual": "Template SNMPv2 Huawei CE7850-CE6850",
      "virtual": ""}
    },
  "CE6860-48S8CQ-EI": {
    "EXT": {
      "novirtual": "Template SNMPv2 Huawei CE7850-CE6850",
      "virtual": ""},
    "INT": {
      "novirtual": "Template SNMPv2 Huawei CE7850-CE6850",
      "virtual": ""}
    },
  "CE6865-48S8CQ-EI": {
    "EXT": {
      "novirtual": "Template SNMPv2 Huawei CE7850-CE6850",
      "virtual": ""},
    "INT": {
      "novirtual": "Template SNMPv2 Huawei CE7850-CE6850",
      "virtual": ""}
    },
  "S6720-54C-EI-48S-AC": {
    "EXT": {
      "novirtual": "",
      "virtual": ""},
    "INT": {
      "novirtual": "Template SNMPv2 Huawei CE7850-CE6850",
      "virtual": ""}
    },
  "CE6870-48S6CQ-EI": {
    "EXT": {
      "novirtual": "Template SNMPv2 Huawei CE7850-CE6850",
      "virtual": ""},
    "INT": {
      "novirtual": "Template SNMPv2 Huawei CE7850-CE6850",
      "virtual": ""}
    },
  "CE8850-32CQ-EI": {
    "EXT": {
      "novirtual": "Template SNMPv2 Huawei CE7850-CE6850",
      "virtual": ""},
    "INT": {
      "novirtual": "Template SNMPv2 Huawei CE7850-CE6850",
      "virtual": ""}
    },
  "CE6810-48S4Q-EI": {
    "EXT": {
      "novirtual": "",
      "virtual": ""},
    "INT": {
      "novirtual": "Template SNMPv2 Huawei CE7850-CE6850",
      "virtual": ""}
    },
  "CE7850-32Q-EI": {
    "EXT": {
      "novirtual": "",
      "virtual": ""},
    "INT": {
      "novirtual": "Template SNMPv2 Huawei CE7850-CE6850",
      "virtual": ""}
    },
  "CE6851-48S6Q-HI": {
    "EXT": {
      "novirtual": "Template SNMPv2 Huawei CE7850-CE6850",
      "virtual": ""},
    "INT": {
      "novirtual": "Template SNMPv2 Huawei CE7850-CE6850",
      "virtual": ""}
    },
  "CE6881-48S6CQ": {
    "EXT": {
      "novirtual": "",
      "virtual": ""},
    "INT": {
      "novirtual": "Template SNMPv2 Huawei CE7850-CE6850",
      "virtual": ""}
    },
  "WS-C4948E": {
    "EXT": {
      "novirtual": "Template SNMPv3noPriv Cisco Catalyst ZBX",
      "virtual": ""},
    "INT": {
      "novirtual": "Template SNMPv3noPriv Cisco Catalyst ZBX",
      "virtual": ""}
    },
  "Nexus5548": {
    "EXT": {
      "novirtual": "Template SNMPv3noPriv Nexus 5000",
      "virtual": ""},
    "INT": {
      "novirtual": "Template SNMPv3noPriv Nexus 5000",
      "virtual": ""}
    },
  "Nexus5596": {
    "EXT": {
      "novirtual": "Template SNMPv3noPriv Nexus 5000",
      "virtual": ""},
    "INT": {
      "novirtual": "Template SNMPv3noPriv Nexus 5000",
      "virtual": ""}
    },
  "C93180YC-FX": {
    "EXT": {
      "novirtual": "Template SNMPv3noPriv Cisco Nexus 9000 ZBX",
      "virtual": ""},
    "INT": {
      "novirtual": "Template SNMPv3noPriv Cisco Nexus 9000 ZBX",
      "virtual": "Template SNMPv3noPriv Cisco Nexus 9000 ZBX"}
    },
  "WS-CBS3120X-S": {
    "EXT": {
      "novirtual": "Template SNMPv3noPriv Cisco Blade ZBX",
      "virtual": ""},
    "INT": {
      "novirtual": "Template SNMPv3noPriv Cisco Blade ZBX",
      "virtual": ""}
    },
  "WS-CBS3012-IBM-I": {
    "EXT": {
      "novirtual": "Template SNMPv3noPriv Cisco Blade ZBX",
      "virtual": "Template SNMPv3noPriv Cisco Blade ZBX"},
    "INT": {
      "novirtual": "Template SNMPv3noPriv Cisco Blade ZBX",
      "virtual": ""}
    },
  "Nexus 5596": {
    "EXT": {
      "novirtual": "Template SNMPv3noPriv Nexus 5000",
      "virtual": ""},
    "INT": {
      "novirtual": "Template SNMPv3noPriv Nexus 5000",
      "virtual": ""}
    },
  "Nexus 56128P": {
    "EXT": {
      "novirtual": "Template SNMPv3noPriv Nexus 5000",
      "virtual": ""},
    "INT": {
      "novirtual": "Template SNMPv3noPriv Nexus 5000",
      "virtual": ""}
    },
  "Nexus 6004": {
    "EXT": {
      "novirtual": "Template SNMPv3noPriv Nexus 5000",
      "virtual": ""},
    "INT": {
      "novirtual": "Template SNMPv3noPriv Nexus 5000",
      "virtual": ""}
    },
  "C7004": {
    "EXT": {
      "novirtual": "Template SNMPv3noPriv Nexus 7000 Base",
      "virtual": ""},
    "INT": {
      "novirtual": "Template SNMPv3noPriv Nexus 7000 Base",
      "virtual": "Template SNMPv3noPriv Nexus 7000 Base"}
    },
  "Nexus 3548": {
    "EXT": {
      "novirtual": "Template SNMPv3noPriv Nexus 3000",
      "virtual": ""},
    "INT": {
      "novirtual": "Template SNMPv3noPriv Nexus 3000",
      "virtual": ""}
    },
  "WS-C4948-10GE": {
    "EXT": {
      "novirtual": "Template SNMPv3noPriv Cisco Catalyst ZBX",
      "virtual": ""},
    "INT": {
      "novirtual": "Template SNMPv3noPriv Cisco Catalyst ZBX",
      "virtual": ""}
    },
  "WS-CBS3110G-S-I": {
    "EXT": {
      "novirtual": "Template SNMPv3noPriv Cisco Blade ZBX",
      "virtual": ""},
    "INT": {
      "novirtual": "Template SNMPv3noPriv Cisco Blade ZBX",
      "virtual": ""}
    },
  "CE6855-48S6Q-HI": {
    "EXT": {
      "novirtual": "Template SNMPv2 Huawei CE7850-CE6850",
      "virtual": ""},
    "INT": {
      "novirtual": "Template SNMPv2 Huawei CE7850-CE6850",
      "virtual": ""}
    },
  "CE12804": {
    "EXT": {
      "novirtual": "Template SNMPv2 Huawei CE7850-CE6850",
      "virtual": ""},
    "INT": {
      "novirtual": "Template SNMPv2 Huawei CE7850-CE6850",
      "virtual": ""}
    },
  "CE12808": {
    "EXT": {
      "novirtual": "Template SNMPv2 Huawei CE7850-CE6850",
      "virtual": ""},
    "INT": {
      "novirtual": "Template SNMPv2 Huawei CE7850-CE6850",
      "virtual": "Template SNMPv2 Huawei CE7850-CE6850"}
    },
  "CE6810-48S4Q-LI": {
    "EXT": {
      "novirtual": "Template SNMPv2 Huawei CE7850-CE6850",
      "virtual": ""},
    "INT": {
      "novirtual": "Template SNMPv2 Huawei CE7850-CE6850",
      "virtual": ""}
    },
  "CE6810-24S2Q-LI": {
    "EXT": {
      "novirtual": "Template SNMPv2 Huawei CE7850-CE6850",
      "virtual": ""},
    "INT": {
      "novirtual": "Template SNMPv2 Huawei CE7850-CE6850",
      "virtual": ""}
    },
  "CE8860-4C-EI": {
    "EXT": {
      "novirtual": "Template SNMPv2 Huawei CE7850-CE6850",
      "virtual": ""},
    "INT": {
      "novirtual": "Template SNMPv2 Huawei CE7850-CE6850",
      "virtual": ""}
    },
  "WS-C3750X-48PF-S": {
    "EXT": {
      "novirtual": "Template SNMPv3noPriv Cisco Catalyst ZBX",
      "virtual": ""},
    "INT": {
      "novirtual": "Template SNMPv3noPriv Cisco Catalyst ZBX",
      "virtual": ""}
    },
  "WS-C3750X-24S-E": {
    "EXT": {
      "novirtual": "",
      "virtual": ""},
    "INT": {
      "novirtual": "Template SNMPv3noPriv Cisco Catalyst ZBX",
      "virtual": ""}
    },
  "WS-C3750-48TS-S": {
    "EXT": {
      "novirtual": "Template SNMPv3noPriv Cisco Catalyst ZBX",
      "virtual": ""},
    "INT": {
      "novirtual": "Template SNMPv3noPriv Cisco Catalyst ZBX",
      "virtual": ""}
    },
  "WS-C3750G-48TS-E": {
    "EXT": {
      "novirtual": "Template SNMPv3noPriv Cisco Catalyst ZBX",
      "virtual": ""},
    "INT": {
      "novirtual": "Template SNMPv3noPriv Cisco Catalyst ZBX",
      "virtual": ""}
    },
  "WS-C3750G-24TS-E1U": {
    "EXT": {
      "novirtual": "Template SNMPv3noPriv Cisco Catalyst ZBX",
      "virtual": ""},
    "INT": {
      "novirtual": "Template SNMPv3noPriv Cisco Catalyst ZBX",
      "virtual": ""}
    },
  "WS-C4500X-32": {
    "EXT": {
      "novirtual": "",
      "virtual": ""},
    "INT": {
      "novirtual": "Template SNMPv3noPriv Cisco Catalyst ZBX",
      "virtual": ""}
    },
  "WS-C3750V2-48TS-S": {
    "EXT": {
      "novirtual": "",
      "virtual": ""},
    "INT": {
      "novirtual": "Template SNMPv3noPriv Cisco Catalyst ZBX",
      "virtual": ""}
    },
  "WS-C2960-48TC-L": {
    "EXT": {
      "novirtual": "",
      "virtual": ""},
    "INT": {
      "novirtual": "Template SNMPv3noPriv Cisco Catalyst ZBX",
      "virtual": ""}
    },
  "WS-C2960PD-8TT-L": {
    "EXT": {
      "novirtual": "",
      "virtual": ""},
    "INT": {
      "novirtual": "Template SNMPv3noPriv Cisco Catalyst ZBX",
      "virtual": ""}
    },
  "WS-C3750-48TS-E": {
    "EXT": {
      "novirtual": "Template SNMPv3noPriv Cisco Catalyst ZBX",
      "virtual": ""},
    "INT": {
      "novirtual": "Template SNMPv3noPriv Cisco Catalyst ZBX",
      "virtual": ""}
    },
  "WS-C3650-48PQ": {
    "EXT": {
      "novirtual": "",
      "virtual": ""},
    "INT": {
      "novirtual": "Template SNMPv3noPriv Cisco Catalyst ZBX",
      "virtual": ""}
    },
  "C9336C-FX2": {
    "EXT": {
      "novirtual": "Template SNMPv3noPriv Cisco Nexus 9000 ZBX",
      "virtual": ""},
    "INT": {
      "novirtual": "Template SNMPv3noPriv Cisco Nexus 9000 ZBX",
      "virtual": "Template SNMPv3noPriv Cisco Nexus 9000 ZBX"}
    },
  "C9504": {
    "EXT": {
      "novirtual": "Template SNMPv3noPriv Cisco Nexus 9000 ZBX",
      "virtual": ""},
    "INT": {
      "novirtual": "Template SNMPv3noPriv Cisco Nexus 9000 ZBX",
      "virtual": "Template SNMPv3noPriv Cisco Nexus 9000 ZBX"}
    },
  "C9508": {
    "EXT": {
      "novirtual": "Template SNMPv3noPriv Cisco Nexus 9000 ZBX",
      "virtual": ""},
    "INT": {
      "novirtual": "Template SNMPv3noPriv Cisco Nexus 9000 ZBX",
      "virtual": "Template SNMPv3noPriv Cisco Nexus 9000 ZBX"}
    },
  "WS-C6506-E": {
    "EXT": {
      "novirtual": "Template SNMPv3noPriv Cisco 6500 ZBX",
      "virtual": ""},
    "INT": {
      "novirtual": "Template SNMPv3noPriv Cisco 6500 ZBX",
      "virtual": ""}
    },
  "WS-C6509-E": {
    "EXT": {
      "novirtual": "Template SNMPv3noPriv Cisco 6500 ZBX",
      "virtual": ""},
    "INT": {
      "novirtual": "Template SNMPv3noPriv Cisco 6500 ZBX",
      "virtual": ""}
    },
  "WS-C6504-E": {
    "EXT": {
      "novirtual": "Template SNMPv3noPriv Cisco 6500 ZBX",
      "virtual": ""},
    "INT": {
      "novirtual": "Template SNMPv3noPriv Cisco 6500 ZBX",
      "virtual": ""}
    },
  "ASR 9010": {
    "EXT": {
      "novirtual": "Template SNMPv3noPriv Cisco ASR 9000 ZBX",
      "virtual": ""},
    "INT": {
      "novirtual": "Template SNMPv3noPriv Cisco ASR 9000 ZBX",
      "virtual": ""}
    },
  "ASR-9001": {
    "EXT": {
      "novirtual": "Template SNMPv3noPriv Cisco ASR 9000 ZBX",
      "virtual": ""},
    "INT": {
      "novirtual": "Template SNMPv3noPriv Cisco ASR 9000 ZBX",
      "virtual": ""}
    },
  "WS-C4948": {
    "EXT": {
      "novirtual": "Template SNMPv3noPriv Cisco Catalyst ZBX",
      "virtual": ""},
    "INT": {
      "novirtual": "Template SNMPv3noPriv Cisco Catalyst ZBX",
      "virtual": ""}
    },
  "WS-CBS3120G-S": {
    "EXT": {
      "novirtual": "Template SNMPv3noPriv Cisco Blade ZBX",
      "virtual": ""},
    "INT": {
      "novirtual": "Template SNMPv3noPriv Cisco Blade ZBX",
      "virtual": ""}
    },
  "WS-CBS3020-HPQ": {
    "EXT": {
      "novirtual": "Template SNMPv3noPriv Cisco Blade ZBX",
      "virtual": ""},
    "INT": {
      "novirtual": "Template SNMPv3noPriv Cisco Blade ZBX",
      "virtual": ""}
    },
  "C7706": {
    "EXT": {
      "novirtual": "Template SNMPv3noPriv Nexus 7000 Base",
      "virtual": ""},
    "INT": {
      "novirtual": "Template SNMPv3noPriv Nexus 7000 Base",
      "virtual": "Template SNMPv3noPriv Nexus 7000 Base"}
    },
  "WS-C3850-24S": {
    "EXT": {
      "novirtual": "Template SNMPv3noPriv Cisco Catalyst ZBX",
      "virtual": ""},
    "INT": {
      "novirtual": "Template SNMPv3noPriv Cisco Catalyst ZBX",
      "virtual": ""}
    },
  "WS-C6503-E": {
    "EXT": {
      "novirtual": "Template SNMPv3noPriv Cisco Catalyst ZBX",
      "virtual": ""},
    "INT": {
      "novirtual": "Template SNMPv3noPriv Cisco Catalyst ZBX",
      "virtual": ""}
    },
  "WS-C3750X-48T-L": {
    "EXT": {
      "novirtual": "Template SNMPv3noPriv Cisco Catalyst ZBX",
      "virtual": ""},
    "INT": {
      "novirtual": "Template SNMPv3noPriv Cisco Catalyst ZBX",
      "virtual": ""}
    },
  "C7018": {
    "EXT": {
      "novirtual": "Template SNMPv3noPriv Nexus 7000 Base",
      "virtual": "Template SNMPv3noPriv Nexus 7000 VDC Only"},
    "INT": {
      "novirtual": "Template SNMPv3noPriv Nexus 7000 Base",
      "virtual": "Template SNMPv3noPriv Nexus 7000 VDC Only"}
    },
  "WS-C3650-48PS": {
    "EXT": {
      "novirtual": "Template SNMPv3noPriv Cisco Catalyst ZBX",
      "virtual": ""},
    "INT": {
      "novirtual": "Template SNMPv3noPriv Cisco Catalyst ZBX",
      "virtual": ""}
    },
  "WS-C3650-48PD": {
    "EXT": {
      "novirtual": "Template SNMPv3noPriv Cisco Catalyst ZBX",
      "virtual": ""},
    "INT": {
      "novirtual": "Template SNMPv3noPriv Cisco Catalyst ZBX",
      "virtual": ""}
    },
  "WS-C3560G-48TS-E": {
    "EXT": {
      "novirtual": "Template SNMPv3noPriv Cisco Catalyst ZBX",
      "virtual": ""},
    "INT": {
      "novirtual": "Template SNMPv3noPriv Cisco Catalyst ZBX",
      "virtual": ""}
    },
  "WS-C3560-48TS-E": {
    "EXT": {
      "novirtual": "Template SNMPv3noPriv Cisco Catalyst ZBX",
      "virtual": ""},
    "INT": {
      "novirtual": "Template SNMPv3noPriv Cisco Catalyst ZBX",
      "virtual": ""}
    },
  "WS-C3750-24TS-S": {
    "EXT": {
      "novirtual": "Template SNMPv3noPriv Cisco Catalyst ZBX",
      "virtual": ""},
    "INT": {
      "novirtual": "Template SNMPv3noPriv Cisco Catalyst ZBX",
      "virtual": ""}
    },
  "WS-C3750G-48TS-S": {
    "EXT": {
      "novirtual": "Template SNMPv3noPriv Cisco Catalyst ZBX",
      "virtual": ""},
    "INT": {
      "novirtual": "Template SNMPv3noPriv Cisco Catalyst ZBX",
      "virtual": ""}
    },
  "WS-C2960S-48FPS-L": {
    "EXT": {
      "novirtual": "Template SNMPv3noPriv Cisco Catalyst ZBX",
      "virtual": ""},
    "INT": {
      "novirtual": "Template SNMPv3noPriv Cisco Catalyst ZBX",
      "virtual": ""}
    },
  "WS-C2960G-24TC-L": {
    "EXT": {
      "novirtual": "Template SNMPv3noPriv Cisco Catalyst ZBX",
      "virtual": ""},
    "INT": {
      "novirtual": "Template SNMPv3noPriv Cisco Catalyst ZBX",
      "virtual": ""}
    },
  "WS-C3750V2-48PS-S": {
    "EXT": {
      "novirtual": "Template SNMPv3noPriv Cisco Catalyst ZBX",
      "virtual": ""},
    "INT": {
      "novirtual": "Template SNMPv3noPriv Cisco Catalyst ZBX",
      "virtual": ""}
    },
  "C7710": {
    "EXT": {
      "novirtual": "Template SNMPv3noPriv Nexus 7000 Base",
      "virtual": "Template SNMPv3noPriv Nexus 7000 VDC Only"},
    "INT": {
      "novirtual": "Template SNMPv3noPriv Nexus 7000 Base",
      "virtual": "Template SNMPv3noPriv Nexus 7000 VDC Only"}
    },
  "WS-C3560G-24TS-S": {
    "EXT": {
      "novirtual": "Template SNMPv3noPriv Cisco Catalyst ZBX",
      "virtual": ""},
    "INT": {
      "novirtual": "Template SNMPv3noPriv Cisco Catalyst ZBX",
      "virtual": ""}
    },
  "WS-C3548-XL": {
    "EXT": {
      "novirtual": "Template SNMPv3noPriv Cisco Catalyst ZBX",
      "virtual": ""},
    "INT": {
      "novirtual": "Template SNMPv3noPriv Cisco Catalyst ZBX",
      "virtual": ""}
    },
  "CX310": {
    "EXT": {
      "novirtual": "Template SNMPv2 Huawei Blade",
      "virtual": ""},
    "INT": {
      "novirtual": "Template SNMPv2 Huawei Blade",
      "virtual": ""}
    },
  "CX912_10GE": {
    "EXT": {
      "novirtual": "Template SNMPv2 Huawei Blade",
      "virtual": ""},
    "INT": {
      "novirtual": "Template SNMPv2 Huawei Blade",
      "virtual": ""}
    },
  "6125XLG": {
    "EXT": {
      "novirtual": "Template SNMPv3noPriv Cisco Blade ZBX",
      "virtual": ""},
    "INT": {
      "novirtual": "Template SNMPv3noPriv Cisco Blade ZBX",
      "virtual": ""}
    },
  "EN4093R": {
    "EXT": {
      "novirtual": "",
      "virtual": ""},
    "INT": {
      "novirtual": "Template SNMPv3noPriv IBM Blade",
      "virtual": ""}
    },
  "N9K-C9364C": {
    "EXT": {
      "novirtual": "Template SNMPv3noPriv Cisco Nexus 9000 ZBX",
      "virtual": ""},
    "INT": {
      "novirtual": "Template SNMPv3noPriv Cisco Nexus 9000 ZBX",
      "virtual": ""}
    },
  "N9K-C9364C-GX": {
    "EXT": {
      "novirtual": "",
      "virtual": ""},
    "INT": {
      "novirtual": "Template SNMPv3noPriv Cisco Nexus 9000 ZBX",
      "virtual": ""}
    },
  "C9364C": {
    "EXT": {
      "novirtual": "Template SNMPv3noPriv Cisco Nexus 9000 ZBX",
      "virtual": ""},
    "INT": {
      "novirtual": "Template SNMPv3noPriv Cisco Nexus 9000 ZBX",
      "virtual": ""}
    },
  "Cisco ASR 1002-X": {
    "EXT": {
      "novirtual": "Template SNMPv3noPriv Cisco ASR 1000 ZBX",
      "virtual": ""},
    "INT": {
      "novirtual": "Template SNMPv3noPriv Cisco ASR 1000 ZBX",
      "virtual": ""}
    },
  "WS-C3750X-24T-S": {
    "EXT": {
      "novirtual": "Template SNMPv3noPriv Cisco Catalyst ZBX",
      "virtual": ""},
    "INT": {
      "novirtual": "Template SNMPv3noPriv Cisco Catalyst ZBX",
      "virtual": ""}
    },
  "WS-C3650-24PD": {
    "EXT": {
      "novirtual": "Template SNMPv3noPriv Cisco Catalyst ZBX",
      "virtual": ""},
    "INT": {
      "novirtual": "Template SNMPv3noPriv Cisco Catalyst ZBX",
      "virtual": ""}
    },
  "WS-C3650-48TQ": {
    "EXT": {
      "novirtual": "Template SNMPv3noPriv Cisco Catalyst ZBX",
      "virtual": ""},
    "INT": {
      "novirtual": "Template SNMPv3noPriv Cisco Catalyst ZBX",
      "virtual": ""}
    },
  "Nexus 3172": {
    "EXT": {
      "novirtual": "Template SNMPv3noPriv Nexus 3000",
      "virtual": ""},
    "INT": {
      "novirtual": "Template SNMPv3noPriv Nexus 3000",
      "virtual": ""}
    },
  "Cisco FlowAgent3000": {
    "EXT": {
      "novirtual": "Template Module ICMP Ping",
      "virtual": ""},
    "INT": {
      "novirtual": "Template Module ICMP Ping",
      "virtual": ""}
    },
  "NGN-OS": {
    "EXT": {
      "novirtual": "",
      "virtual": ""},
    "INT": {
      "novirtual": "Template SNMPv2 Mellanox ZBX",
      "virtual": ""}
    },
  "CE12804S": {
    "EXT": {
      "novirtual": "Template SNMPv2 Huawei CE7850-CE6850",
      "virtual": ""},
    "INT": {
      "novirtual": "Template SNMPv2 Huawei CE7850-CE6850",
      "virtual": ""}
    },
  "No delete": {
    "EXT": {
      "novirtual": "",
      "virtual": ""},
    "INT": {
      "novirtual": "",
      "virtual": ""}
    }
}